hw05
…
Rows: 1222 Columns: 10

── Column specification ────────────────────────────────────────────────────────
Delimiter: ","
chr (2): months, state
dbl (8): year, colony_n, colony_max, colony_lost, colony_lost_pct, colony_ad...

ℹ Use `spec()` to retrieve the full column specification for this data.
ℹ Specify the column types or set `show_col_types = FALSE` to quiet this message.

arizona_colony <- filter(colony, state %in% "Arizona")
arizona_colony

# A tibble: 26 × 10
    year months           state  colony_n colony_max colony_lost colony_lost_pct
   <dbl> <chr>            <chr>     <dbl>      <dbl>       <dbl>           <dbl>
 1  2015 January-March    Arizo…    35000      35000        4600              13
 2  2015 April-June       Arizo…    33000      33000        5500              17
 3  2015 July-September   Arizo…    40000      40000        6000              15
 4  2015 October-December Arizo…    36000      39000       12000              31
 5  2016 January-March    Arizo…    30000      30000        4700              16
 6  2016 April-June       Arizo…    22000      23000        3700              16
 7  2016 July-September   Arizo…    30000      32000        6000              19
 8  2016 October-December Arizo…    29000      31000        6500              21
 9  2017 January-March    Arizo…    31000      32000        6000              19
10  2017 April-June       Arizo…    22000      22000        2600              12
# ℹ 16 more rows
# ℹ 3 more variables: colony_added <dbl>, colony_reno <dbl>,
#   colony_reno_pct <dbl>
…
Rows: 7332 Columns: 5
── Column specification ────────────────────────────────────────────────────────
Delimiter: ","
chr (3): months, state, stressor
dbl (2): year, stress_pct

ℹ Use `spec()` to retrieve the full column specification for this data.
ℹ Specify the column types or set `show_col_types = FALSE` to quiet this message.

arizona_stressor <- filter(stressor, state %in% "Arizona")
arizona_stressor

# A tibble: 156 × 5
    year months        state   stressor              stress_pct
   <dbl> <chr>         <chr>   <chr>                      <dbl>
 1  2015 January-March Arizona Varroa mites                26.9
 2  2015 January-March Arizona Other pests/parasites       20.5
 3  2015 January-March Arizona Disesases                    0.1
 4  2015 January-March Arizona Pesticides                  NA  
 5  2015 January-March Arizona Other                        1.8
 6  2015 January-March Arizona Unknown                      3.1
 7  2015 April-June    Arizona Varroa mites                 8.4
 8  2015 April-June    Arizona Other pests/parasites       32.1
 9  2015 April-June    Arizona Disesases                    0.5
10  2015 April-June    Arizona Pesticides                  20.1
# ℹ 146 more rows
…
arizona_colony %>%
    select(-colony_reno_pct) %>%
    filter(!complete.cases(.))

# A tibble: 2 × 9
   year months        state   colony_n colony_max colony_lost colony_lost_pct
  <dbl> <chr>         <chr>      <dbl>      <dbl>       <dbl>           <dbl>
1  2017 January-March Arizona    31000      32000        6000              19
2  2019 April-June    Arizona       NA         NA          NA              NA
# ℹ 2 more variables: colony_added <dbl>, colony_reno <dbl>

arizona_colony

# A tibble: 26 × 10
    year months           state  colony_n colony_max colony_lost colony_lost_pct
   <dbl> <chr>            <chr>     <dbl>      <dbl>       <dbl>           <dbl>
 1  2015 January-March    Arizo…    35000      35000        4600              13
 2  2015 April-June       Arizo…    33000      33000        5500              17
 3  2015 July-September   Arizo…    40000      40000        6000              15
 4  2015 October-December Arizo…    36000      39000       12000              31
 5  2016 January-March    Arizo…    30000      30000        4700              16
 6  2016 April-June       Arizo…    22000      23000        3700              16
 7  2016 July-September   Arizo…    30000      32000        6000              19
 8  2016 October-December Arizo…    29000      31000        6500              21
 9  2017 January-March    Arizo…    31000      32000        6000              19
10  2017 April-June       Arizo…    22000      22000        2600              12
# ℹ 16 more rows
# ℹ 3 more variables: colony_added <dbl>, colony_reno <dbl>,
#   colony_reno_pct <dbl>

# Don't impute April-June 2019, and remove row, as this is only row with null values and entire row of data wasn't collected: 

arizona_colony %>% na.omit()

# A tibble: 22 × 10
    year months           state  colony_n colony_max colony_lost colony_lost_pct
   <dbl> <chr>            <chr>     <dbl>      <dbl>       <dbl>           <dbl>
 1  2015 January-March    Arizo…    35000      35000        4600              13
 2  2015 April-June       Arizo…    33000      33000        5500              17
 3  2015 July-September   Arizo…    40000      40000        6000              15
 4  2015 October-December Arizo…    36000      39000       12000              31
 5  2016 January-March    Arizo…    30000      30000        4700              16
 6  2016 April-June       Arizo…    22000      23000        3700              16
 7  2016 July-September   Arizo…    30000      32000        6000              19
 8  2016 October-December Arizo…    29000      31000        6500              21
 9  2017 April-June       Arizo…    22000      22000        2600              12
10  2017 July-September   Arizo…    26000      26000        4100              16
# ℹ 12 more rows
# ℹ 3 more variables: colony_added <dbl>, colony_reno <dbl>,
#   colony_reno_pct <dbl>
…
   stress_pct   
 Min.   : 0.10  
 1st Qu.: 2.75  
 Median : 6.50  
 Mean   :12.84  
 3rd Qu.:17.35  
 Max.   :98.80  
 NA's   :17     

arizona_stressor

# A tibble: 156 × 5
    year months        state   stressor              stress_pct
   <dbl> <chr>         <chr>   <chr>                      <dbl>
 1  2015 January-March Arizona Varroa mites                26.9
 2  2015 January-March Arizona Other pests/parasites       20.5
 3  2015 January-March Arizona Disesases                    0.1
 4  2015 January-March Arizona Pesticides                  NA  
 5  2015 January-March Arizona Other                        1.8
 6  2015 January-March Arizona Unknown                      3.1
 7  2015 April-June    Arizona Varroa mites                 8.4
 8  2015 April-June    Arizona Other pests/parasites       32.1
 9  2015 April-June    Arizona Disesases                    0.5
10  2015 April-June    Arizona Pesticides                  20.1
# ℹ 146 more rows

# Rearrange stressor values from high to low:

arizona_stressor %>% arrange(desc(stress_pct))

# A tibble: 156 × 5
    year months           state   stressor              stress_pct
   <dbl> <chr>            <chr>   <chr>                      <dbl>
 1  2016 October-December Arizona Varroa mites                98.8
 2  2017 October-December Arizona Varroa mites                61.6
 3  2017 April-June       Arizona Varroa mites                57.8
 4  2019 October-December Arizona Varroa mites                53.9
 5  2015 July-September   Arizona Varroa mites                53.5
 6  2018 July-September   Arizona Varroa mites                52.5
 7  2015 October-December Arizona Varroa mites                50.1
 8  2018 April-June       Arizona Varroa mites                48.8
 9  2016 April-June       Arizona Other pests/parasites       47.5
10  2016 July-September   Arizona Varroa mites                41.7
# ℹ 146 more rows
…
# "Varroa mites" are having the main effect on the declining AZ bee population from a few seasonal months in 2015-2019, followed by "Other pests/parasites" in April-June 2016, then back to "Varroa mites from a few seasonal months in 2016-2018.

Data Preprocessing: Combine Both Datasets Based on Population Count and Stressors

# First filter "Stressor" dataset for top 2 stressors then concatonate with corresponding bee population from "Colony" dataset

top_arizona_stressors <- arizona_stressor %>%
  filter(stressor %in% c("Varroa mites", "Other pests/parasites"))
top_arizona_stressors

# A tibble: 52 × 5
    year months           state   stressor              stress_pct
   <dbl> <chr>            <chr>   <chr>                      <dbl>
 1  2015 January-March    Arizona Varroa mites                26.9
 2  2015 January-March    Arizona Other pests/parasites       20.5
 3  2015 April-June       Arizona Varroa mites                 8.4
 4  2015 April-June       Arizona Other pests/parasites       32.1
 5  2015 July-September   Arizona Varroa mites                53.5
 6  2015 July-September   Arizona Other pests/parasites       24.8
 7  2015 October-December Arizona Varroa mites                50.1
 8  2015 October-December Arizona Other pests/parasites        1.7
 9  2016 January-March    Arizona Varroa mites                32.8
10  2016 January-March    Arizona Other pests/parasites        2.8
# ℹ 42 more rows

combined_dataset <- merge(top_arizona_stressors, colony, by = c("year", "months", "state"))
combined_dataset <- as_tibble(combined_dataset)
combined_dataset %>% arrange(desc(stress_pct))

# A tibble: 52 × 12
    year months        state stressor stress_pct colony_n colony_max colony_lost
   <dbl> <chr>         <chr> <chr>         <dbl>    <dbl>      <dbl>       <dbl>
 1  2016 October-Dece… Ariz… Varroa …       98.8    29000      31000        6500
 2  2017 October-Dece… Ariz… Varroa …       61.6    27000      30000        6500
 3  2017 April-June    Ariz… Varroa …       57.8    22000      22000        2600
 4  2019 October-Dece… Ariz… Varroa …       53.9    34000      36000        7000
 5  2015 July-Septemb… Ariz… Varroa …       53.5    40000      40000        6000
 6  2018 July-Septemb… Ariz… Varroa …       52.5    31000      31000        8000
 7  2015 October-Dece… Ariz… Varroa …       50.1    36000      39000       12000
 8  2018 April-June    Ariz… Varroa …       48.8    18500      19500        2600
 9  2016 April-June    Ariz… Other p…       47.5    22000      23000        3700
10  2016 July-Septemb… Ariz… Varroa …       41.7    30000      32000        6000
# ℹ 42 more rows
# ℹ 4 more variables: colony_lost_pct <dbl>, colony_added <dbl>,
#   colony_reno <dbl>, colony_reno_pct <dbl>
…
